906 600 179
512 507 62
91 219 125
762 758 109
324 163 131
862 735 153
773 672 171
442 693 145
466 310 144
455 334 134
685 601 145
83 765 171
920 737 179
9 169 122
828 834 135
534 206 144
115 458 144
832 93 171
178 301 128
100 593 144
284 695 145
950 870 179
318 289 131
755 264 171
670 86 145
494 528 124
121 103 114
197 914 179
128 201 125
514 3 144
54 861 171
840 120 171
401 750 171
26 407 144
720 968 179
956 91 179
970 412 179
819 337 171
884 463 179
525 240 144
235 539 144
456 787 171
665 159 145
171 20 125
983 465 179
184 415 144
438 606 142
151 622 144
384 369 108
3 646 144
23 282 128
328 557 142
114 621 144
774 985 179
860 18 171
390 92 144
752 129 171
244 902 179
711 389 171
725 174 171
4718 508 238
1422 838 182
8916 1400 262
1222 7591 262
2852 5627 238
8693 3087 262
2698 9867 262
3735 4881 215
7662 9591 260
6889 5880 262
2879 9983 262
7519 5901 262
9212 9472 260
2035 9347 262
6968 6912 257
6605 3017 262
2612 6886 262
7572 3479 262
9419 796 262
4102 859 238
8932 4065 262
3976 3429 238
7716 6504 257
5772 6252 262
1961 449 182
4488 6965 262
6895 7760 257
4332 1268 238
5176 7113 262
8054 8547 234
9607 6186 260
5390 4364 215
6318 8045 257
7681 1085 262
4373 229 238
5244 8308 262
7056 6426 257
9898 1009 262
2013 3286 217
7566 8610 252
6350 3929 262
5076 1557 238
2631 5446 238
9264 2601 262
5089 1018 238
4202 6019 236
1470 6484 262
5884 8357 262
7453 8738 252
1726 1360 180
3832 9222 262
4810 8895 262
8646 7930 252
9079 9714 260
6745 1159 262
6170 2195 238
344 3270 217
2572 6287 262
78 7073 262
8548 9776 260
6307 15402 276
47191 41380 314
91388 31210 351
92049 48582 351
27323 45532 324
89302 34543 351
99315 65028 351
96475 60697 351
35485 92986 351
30164 46248 324
19228 7029 279
84109 21587 351
32145 81806 351
95508 91859 328
47261 66181 340
88547 82496 333
9309 82076 351
39879 504 324
6067 14143 276
87191 4097 351
22023 6909 279
63106 46336 340
95317 18787 351
84093 91124 333
78476 42555 351
95826 7907 351
48671 66865 340
65191 54808 335
8686 78279 351
3873 79074 351
24569 11392 282
32599 67117 340
32537 25935 308
37665 99551 351
56384 4182 340
55391 11761 340
11832 55859 340
76903 74338 325
51444 64025 340
74773 29140 340
54035 44838 340
97254 40892 351
56264 65359 335
24725 61050 340
53837 19874 340
39389 13553 324
3058 22576 279
65713 83177 351
38299 5738 324
8417 62276 340
54662 53046 322
67892 32544 340
67227 76444 325
93988 16148 351
85441 6943 351
41934 2449 324
64998 17059 340
51476 59690 340
4343 27377 308
14955 66450 340
106551 411700 449
173216 97945 383
89175 214939 383
434717 794627 509
460623 831095 509
329715 433769 449
221903 437028 449
557983 210735 470
523733 476489 470
525790 69164 470
743380 655796 504
68838 703584 509
504844 783593 509
366122 876850 525
444980 241470 449
55625 800834 509
829574 331699 509
853443 653557 525
891911 636329 525
399745 786620 509
989159 916035 507
235231 48543 443
790325 457218 509
969835 726560 525
224586 615825 470
602253 314358 470
607995 479978 470
942228 610063 525
523536 118923 470
829362 662840 504
665041 431096 509
702079 79490 509
340744 91178 443
231136 447200 449
56055 492088 449
549514 377076 470
812991 394352 509
72516 962928 525
445948 658007 509
381168 557936 470
299246 338808 384
523631 573658 452
471510 957546 525
716301 824718 468
683764 337940 509
906725 185539 525
19980 112159 354
587153 257355 470
791936 34234 509
839075 56662 525
559718 369197 470
411857 159360 449
114202 903822 525
19592 302644 443
398326 761699 509
174347 478591 449
780984 236620 509
231108 627544 509
270557 962075 525
611632 201804 470
